{
  "docs": [
    {
      "id": 535341,
      "name": "1+1",
      "alternativeName": "Intouchables",
      "type": "movie",
      "description": "Пострадав в результате несчастного случая, богатый аристократ Филипп нанимает в помощники человека, который менее всего подходит для этой работы, — молодого жителя предместья Дрисса, только что освободившегося из тюрьмы. Несмотря на то, что Филипп прикован к инвалидному креслу, Дриссу удается привнести в размеренную жизнь аристократа дух приключений.",
      "shortDescription": "Аристократ на коляске нанимает в сиделки бывшего заключенного. Искрометная французская комедия с Омаром Си",
      "rating": {
        "kp": 8.834,
        "imdb": 8.5,
        "filmCritics": 6.8,
        "russianFilmCritics": 100,
        "await": null
      },
      "movieLength": 112,
      "genres": [
        {
          "name": "драма"
        },
        {
          "name": "комедия"
        }
      ],
      "countries": [
        {
          "name": "Франция"
        }
      ],
      "budget": {
        "currency": "€",
        "value": 9500000
      },
      "top250": 1,
      "isSeries": false
    },
    {
      "rating": {
        "kp": 8.64,
        "imdb": 8.7,
        "filmCritics": 7.1,
        "russianFilmCritics": 80.6452,
        "await": null
      },
      "movieLength": 169,
      "id": 258687,
      "type": "movie",
      "name": "Интерстеллар",
      "description": "Когда засуха, пыльные бури и вымирание растений приводят человечество к продовольственному кризису, коллектив исследователей и учёных отправляется сквозь червоточину (которая предположительно соединяет области пространства-времени через большое расстояние) в путешествие, чтобы превзойти прежние ограничения для космических путешествий человека и найти планету с подходящими для человечества условиями.",
      "budget": {
        "value": 165000000,
        "currency": "$"
      },
      "genres": [
        {
          "name": "фантастика"
        },
        {
          "name": "драма"
        },
        {
          "name": "приключения"
        }
      ],
      "countries": [
        {
          "name": "США"
        },
        {
          "name": "Великобритания"
        },
        {
          "name": "Канада"
        }
      ],
      "alternativeName": "Interstellar",
      "shortDescription": "Фантастический эпос про задыхающуюся Землю, космические полеты и парадоксы времени. «Оскар» за спецэффекты",
      "top250": 2,
      "isSeries": false
    }
  ],
  "limit": 2,
  "page": 1,
  "pages": 118,
  "total": 235
}